{
  "project_info": {
    "project_number": "397553218400",
    "firebase_url": "https://blackblog-d9e00.firebaseio.com",
    "project_id": "blackblog-d9e00",
    "storage_bucket": "blackblog-d9e00.appspot.com"
  },
  "client": [
    {
      "client_info": {
        "mobilesdk_app_id": "1:397553218400:android:88d3fb6397627261",
        "android_client_info": {
          "package_name": "com.renaissance.blackblog"
        }
      },
      "oauth_client": [
        {
          "client_id": "397553218400-itv8fkhile8j66phstiiconcc3eeh2ph.apps.googleusercontent.com",
          "client_type": 3
        }
      ],
      "api_key": [
        {
          "current_key": "AIzaSyArVCEYOqeFuVb6EM-kuXy_JLlkiCGD1Og"
        }
      ],
      "services": {
        "analytics_service": {
          "status": 1
        },
        "appinvite_service": {
          "status": 2,
          "other_platform_oauth_client": [
            {
              "client_id": "397553218400-itv8fkhile8j66phstiiconcc3eeh2ph.apps.googleusercontent.com",
              "client_type": 3
            }
          ]
        },
        "ads_service": {
          "status": 2
        }
      }
    }
  ],
  "configuration_version": "1"
}